2020-02-25 11:33:24,255 ERROR read cluster conf fail

java.io.FileNotFoundException: C:\Users\Administrator\Desktop\test\nacos\nacos\conf\cluster.conf (系统找不到指定的文件。)
	at java.io.FileInputStream.open0(Native Method)
	at java.io.FileInputStream.open(FileInputStream.java:195)
	at java.io.FileInputStream.<init>(FileInputStream.java:138)
	at com.alibaba.nacos.core.utils.SystemUtils.readClusterConf(SystemUtils.java:124)
	at com.alibaba.nacos.core.listener.StartingSpringApplicationRunListener.logClusterConf(StartingSpringApplicationRunListener.java:142)
	at com.alibaba.nacos.core.listener.StartingSpringApplicationRunListener.contextPrepared(StartingSpringApplicationRunListener.java:92)
	at org.springframework.boot.SpringApplicationRunListeners.contextPrepared(SpringApplicationRunListeners.java:60)
	at org.springframework.boot.SpringApplication.prepareContext(SpringApplication.java:374)
	at org.springframework.boot.SpringApplication.run(SpringApplication.java:314)
	at org.springframework.boot.SpringApplication.run(SpringApplication.java:1260)
	at org.springframework.boot.SpringApplication.run(SpringApplication.java:1248)
	at com.alibaba.nacos.Nacos.main(Nacos.java:35)
	at sun.reflect.NativeMethodAccessorImpl.invoke0(Native Method)
	at sun.reflect.NativeMethodAccessorImpl.invoke(NativeMethodAccessorImpl.java:62)
	at sun.reflect.DelegatingMethodAccessorImpl.invoke(DelegatingMethodAccessorImpl.java:43)
	at java.lang.reflect.Method.invoke(Method.java:498)
	at org.springframework.boot.loader.MainMethodRunner.run(MainMethodRunner.java:48)
	at org.springframework.boot.loader.Launcher.launch(Launcher.java:87)
	at org.springframework.boot.loader.Launcher.launch(Launcher.java:50)
	at org.springframework.boot.loader.PropertiesLauncher.main(PropertiesLauncher.java:593)
2020-02-25 11:33:24,267 INFO Starting Nacos v1.2.0-beta.1 on 2G02Q634KQ7FTOA with PID 9644 (C:\Users\Administrator\Desktop\test\nacos\nacos\target\nacos-server.jar started by WangLan in C:\Users\Administrator\Desktop\test\nacos\nacos\bin)

2020-02-25 11:33:24,269 INFO No active profile set, falling back to default profiles: default

2020-02-25 11:33:25,260 INFO Nacos is starting...

2020-02-25 11:33:26,262 INFO Nacos is starting...

2020-02-25 11:33:27,272 INFO Nacos is starting...

2020-02-25 11:33:28,306 INFO Nacos is starting...

2020-02-25 11:33:29,297 INFO Bean 'org.springframework.security.config.annotation.configuration.ObjectPostProcessorConfiguration' of type [org.springframework.security.config.annotation.configuration.ObjectPostProcessorConfiguration$$EnhancerBySpringCGLIB$$65087fdb] is not eligible for getting processed by all BeanPostProcessors (for example: not eligible for auto-proxying)

2020-02-25 11:33:29,313 INFO Nacos is starting...

2020-02-25 11:33:29,492 INFO Bean 'objectPostProcessor' of type [org.springframework.security.config.annotation.configuration.AutowireBeanFactoryObjectPostProcessor] is not eligible for getting processed by all BeanPostProcessors (for example: not eligible for auto-proxying)

2020-02-25 11:33:29,497 INFO Bean 'org.springframework.security.access.expression.method.DefaultMethodSecurityExpressionHandler@4d1bf319' of type [org.springframework.security.access.expression.method.DefaultMethodSecurityExpressionHandler] is not eligible for getting processed by all BeanPostProcessors (for example: not eligible for auto-proxying)

2020-02-25 11:33:29,501 INFO Bean 'org.springframework.security.config.annotation.method.configuration.GlobalMethodSecurityConfiguration' of type [org.springframework.security.config.annotation.method.configuration.GlobalMethodSecurityConfiguration$$EnhancerBySpringCGLIB$$89dd228d] is not eligible for getting processed by all BeanPostProcessors (for example: not eligible for auto-proxying)

2020-02-25 11:33:29,511 INFO Bean 'methodSecurityMetadataSource' of type [org.springframework.security.access.method.DelegatingMethodSecurityMetadataSource] is not eligible for getting processed by all BeanPostProcessors (for example: not eligible for auto-proxying)

2020-02-25 11:33:30,320 INFO Nacos is starting...

2020-02-25 11:33:31,040 INFO Tomcat initialized with port(s): 8848 (http)

2020-02-25 11:33:31,169 INFO Initializing ProtocolHandler ["http-nio-8848"]

2020-02-25 11:33:31,217 INFO Starting service [Tomcat]

2020-02-25 11:33:31,217 INFO Starting Servlet Engine: Apache Tomcat/9.0.13

2020-02-25 11:33:31,246 INFO The APR based Apache Tomcat Native library which allows optimal performance in production environments was not found on the java.library.path: [E:\pro_tools\jdk1.8.0_111\bin;C:\Windows\Sun\Java\bin;C:\Windows\system32;C:\Windows;C:\Users\Administrator\bin;F:\sinosoft\Git\Git\mingw64\bin;F:\sinosoft\Git\Git\usr\local\bin;F:\sinosoft\Git\Git\usr\bin;F:\sinosoft\Git\Git\usr\bin;F:\sinosoft\Git\Git\mingw64\bin;F:\sinosoft\Git\Git\usr\bin;C:\Users\Administrator\bin;C:\Windows\system32;C:\Windows;C:\Windows\System32\Wbem;E:\pro_tools\Oracle10g\app\oracle\product\10.2.0\server\Bin;C:\Windows\System32\WindowsPowerShell\v1.0;E:\pro_tools\IBM.Rational.Rose.Enterprise.v7.0\common;E:\job_nessTools\PLSQL\instantclient_11_2;E:\pro_tools\jdk1.8.0_111\bin;E:\pro_tools\jdk1.8.0_111\jre\bin;E:\job_nessTools\Yarn\bin;E:\pro_tools\MySQL\MySQL Server 5.1\bin;E:\job_nessTools\Gradle\gradle-4.5-all\bin;F:\sinosoft\Git\Git\cmd;E:\pro_tools\erl10.0.1\bin;E:\pro_tools\RabbitMQServer\rabbitmq_server-3.7.8\sbin;E:\JOB\OpenVPN\bin;E:\JOB\python2.7.5;E:\JOB\python2.7.5\Scripts;E:\JOB\go113\GO\bin;E:\job_nessTools\node-v9.3.0-x64;E:\JOB\gcc\mingw64\bin;E:\pro_tools\apache-maven-3.5.4\bin;C:\Users\Administrator\AppData\Local\Microsoft\WindowsApps;C:\Users\Administrator\go\bin;E:\JOB\Microsoft VS Code\bin;E:\JOB\Fiddler;C:\Users\Administrator\go\bin;C:\Users\Administrator\AppData\Roaming\npm;F:\sinosoft\Git\Git\usr\bin\vendor_perl;F:\sinosoft\Git\Git\usr\bin\core_perl;.]

2020-02-25 11:33:31,321 INFO Nacos is starting...

2020-02-25 11:33:31,411 INFO Initializing Spring embedded WebApplicationContext

2020-02-25 11:33:31,411 INFO Root WebApplicationContext: initialization completed in 7011 ms

2020-02-25 11:33:32,046 INFO Use Mysql as the driver

2020-02-25 11:33:32,343 INFO Nacos is starting...

2020-02-25 11:33:33,345 INFO Nacos is starting...

2020-02-25 11:33:34,347 INFO Nacos is starting...

2020-02-25 11:33:35,348 INFO Nacos is starting...

2020-02-25 11:33:36,349 INFO Nacos is starting...

2020-02-25 11:33:37,351 INFO Nacos is starting...

2020-02-25 11:33:38,352 INFO Nacos is starting...

2020-02-25 11:33:39,353 INFO Nacos is starting...

2020-02-25 11:33:40,354 INFO Nacos is starting...

2020-02-25 11:33:41,355 INFO Nacos is starting...

2020-02-25 11:33:42,357 INFO Nacos is starting...

2020-02-25 11:33:43,358 INFO Nacos is starting...

2020-02-25 11:33:44,360 INFO Nacos is starting...

2020-02-25 11:33:45,361 INFO Nacos is starting...

2020-02-25 11:33:46,363 INFO Nacos is starting...

2020-02-25 11:33:47,364 INFO Nacos is starting...

2020-02-25 11:33:48,365 INFO Nacos is starting...

2020-02-25 11:33:49,366 INFO Nacos is starting...

2020-02-25 11:33:50,367 INFO Nacos is starting...

2020-02-25 11:33:51,368 INFO Nacos is starting...

2020-02-25 11:33:52,370 INFO Nacos is starting...

2020-02-25 11:33:53,370 INFO Nacos is starting...

2020-02-25 11:33:54,407 INFO Nacos is starting...

2020-02-25 11:33:55,410 INFO Nacos is starting...

2020-02-25 11:33:56,471 INFO Nacos is starting...

2020-02-25 11:33:56,998 INFO Starting Nacos v1.2.0-beta.1 on 2G02Q634KQ7FTOA with PID 6940 (C:\Users\Administrator\Desktop\test\nacos\nacos\target\nacos-server.jar started by WangLan in C:\Users\Administrator\Desktop\test\nacos\nacos\bin)

2020-02-25 11:33:57,003 INFO The following profiles are active: standalone

2020-02-25 11:33:57,483 INFO Nacos is starting...

2020-02-25 11:33:58,493 INFO Nacos is starting...

2020-02-25 11:33:59,495 INFO Nacos is starting...

2020-02-25 11:34:00,495 INFO Nacos is starting...

2020-02-25 11:34:01,498 INFO Nacos is starting...

2020-02-25 11:34:02,290 INFO Reflections took 91 ms to scan 1 urls, producing 6 keys and 24 values 

2020-02-25 11:34:02,358 INFO Reflections took 6 ms to scan 1 urls, producing 2 keys and 12 values 

2020-02-25 11:34:02,371 INFO Reflections took 5 ms to scan 1 urls, producing 3 keys and 15 values 

2020-02-25 11:34:02,501 INFO Nacos is starting...

2020-02-25 11:34:02,837 WARN Exception encountered during context initialization - cancelling refresh attempt: org.springframework.beans.factory.BeanCreationException: Error creating bean with name 'jwtTokenUtils': Invocation of init method failed; nested exception is java.lang.IllegalStateException: Unable to invoke class method io.jsonwebtoken.impl.crypto.MacProvider#generateKey.  Ensure the necessary implementation is in the runtime classpath.

2020-02-25 11:34:02,842 INFO Stopping service [Tomcat]

2020-02-25 11:34:02,848 WARN The web application [nacos] appears to have started a thread named [Abandoned connection cleanup thread] but has failed to stop it. This is very likely to create a memory leak. Stack trace of thread:
 java.lang.Object.wait(Native Method)
 java.lang.ref.ReferenceQueue.remove(ReferenceQueue.java:143)
 com.mysql.jdbc.AbandonedConnectionCleanupThread.run(AbandonedConnectionCleanupThread.java:43)

2020-02-25 11:34:02,849 WARN The web application [nacos] appears to have started a thread named [com.alibaba.nacos.server.Timer-0] but has failed to stop it. This is very likely to create a memory leak. Stack trace of thread:
 sun.misc.Unsafe.park(Native Method)
 java.util.concurrent.locks.LockSupport.parkNanos(LockSupport.java:215)
 java.util.concurrent.locks.AbstractQueuedSynchronizer$ConditionObject.awaitNanos(AbstractQueuedSynchronizer.java:2078)
 java.util.concurrent.ScheduledThreadPoolExecutor$DelayedWorkQueue.take(ScheduledThreadPoolExecutor.java:1093)
 java.util.concurrent.ScheduledThreadPoolExecutor$DelayedWorkQueue.take(ScheduledThreadPoolExecutor.java:809)
 java.util.concurrent.ThreadPoolExecutor.getTask(ThreadPoolExecutor.java:1067)
 java.util.concurrent.ThreadPoolExecutor.runWorker(ThreadPoolExecutor.java:1127)
 java.util.concurrent.ThreadPoolExecutor$Worker.run(ThreadPoolExecutor.java:617)
 java.lang.Thread.run(Thread.java:745)

2020-02-25 11:34:02,849 WARN The web application [nacos] appears to have started a thread named [com.alibaba.nacos.server.Timer-1] but has failed to stop it. This is very likely to create a memory leak. Stack trace of thread:
 sun.misc.Unsafe.park(Native Method)
 java.util.concurrent.locks.LockSupport.park(LockSupport.java:175)
 java.util.concurrent.locks.AbstractQueuedSynchronizer$ConditionObject.await(AbstractQueuedSynchronizer.java:2039)
 java.util.concurrent.ScheduledThreadPoolExecutor$DelayedWorkQueue.take(ScheduledThreadPoolExecutor.java:1088)
 java.util.concurrent.ScheduledThreadPoolExecutor$DelayedWorkQueue.take(ScheduledThreadPoolExecutor.java:809)
 java.util.concurrent.ThreadPoolExecutor.getTask(ThreadPoolExecutor.java:1067)
 java.util.concurrent.ThreadPoolExecutor.runWorker(ThreadPoolExecutor.java:1127)
 java.util.concurrent.ThreadPoolExecutor$Worker.run(ThreadPoolExecutor.java:617)
 java.lang.Thread.run(Thread.java:745)

2020-02-25 11:34:02,850 WARN The web application [nacos] appears to have started a thread named [com.alibaba.nacos.naming.timer] but has failed to stop it. This is very likely to create a memory leak. Stack trace of thread:
 java.lang.Thread.sleep(Native Method)
 com.alibaba.nacos.naming.consistency.ephemeral.distro.DistroConsistencyServiceImpl.load(DistroConsistencyServiceImpl.java:147)
 com.alibaba.nacos.naming.consistency.ephemeral.distro.DistroConsistencyServiceImpl$2.run(DistroConsistencyServiceImpl.java:114)
 java.util.concurrent.Executors$RunnableAdapter.call(Executors.java:511)
 java.util.concurrent.FutureTask.run(FutureTask.java:266)
 java.util.concurrent.ScheduledThreadPoolExecutor$ScheduledFutureTask.access$201(ScheduledThreadPoolExecutor.java:180)
 java.util.concurrent.ScheduledThreadPoolExecutor$ScheduledFutureTask.run(ScheduledThreadPoolExecutor.java:293)
 java.util.concurrent.ThreadPoolExecutor.runWorker(ThreadPoolExecutor.java:1142)
 java.util.concurrent.ThreadPoolExecutor$Worker.run(ThreadPoolExecutor.java:617)
 java.lang.Thread.run(Thread.java:745)

2020-02-25 11:34:02,850 WARN The web application [nacos] appears to have started a thread named [nacos.naming.status.worker] but has failed to stop it. This is very likely to create a memory leak. Stack trace of thread:
 sun.misc.Unsafe.park(Native Method)
 java.util.concurrent.locks.LockSupport.parkNanos(LockSupport.java:215)
 java.util.concurrent.locks.AbstractQueuedSynchronizer$ConditionObject.awaitNanos(AbstractQueuedSynchronizer.java:2078)
 java.util.concurrent.ScheduledThreadPoolExecutor$DelayedWorkQueue.take(ScheduledThreadPoolExecutor.java:1093)
 java.util.concurrent.ScheduledThreadPoolExecutor$DelayedWorkQueue.take(ScheduledThreadPoolExecutor.java:809)
 java.util.concurrent.ThreadPoolExecutor.getTask(ThreadPoolExecutor.java:1067)
 java.util.concurrent.ThreadPoolExecutor.runWorker(ThreadPoolExecutor.java:1127)
 java.util.concurrent.ThreadPoolExecutor$Worker.run(ThreadPoolExecutor.java:617)
 java.lang.Thread.run(Thread.java:745)

2020-02-25 11:34:02,850 WARN The web application [nacos] appears to have started a thread named [com.alibaba.nacos.naming.timer] but has failed to stop it. This is very likely to create a memory leak. Stack trace of thread:
 sun.misc.Unsafe.park(Native Method)
 java.util.concurrent.locks.LockSupport.park(LockSupport.java:175)
 java.util.concurrent.locks.AbstractQueuedSynchronizer$ConditionObject.await(AbstractQueuedSynchronizer.java:2039)
 java.util.concurrent.ScheduledThreadPoolExecutor$DelayedWorkQueue.take(ScheduledThreadPoolExecutor.java:1088)
 java.util.concurrent.ScheduledThreadPoolExecutor$DelayedWorkQueue.take(ScheduledThreadPoolExecutor.java:809)
 java.util.concurrent.ThreadPoolExecutor.getTask(ThreadPoolExecutor.java:1067)
 java.util.concurrent.ThreadPoolExecutor.runWorker(ThreadPoolExecutor.java:1127)
 java.util.concurrent.ThreadPoolExecutor$Worker.run(ThreadPoolExecutor.java:617)
 java.lang.Thread.run(Thread.java:745)

2020-02-25 11:34:02,851 WARN The web application [nacos] appears to have started a thread named [com.alibaba.nacos.naming.raft.notifier] but has failed to stop it. This is very likely to create a memory leak. Stack trace of thread:
 sun.misc.Unsafe.park(Native Method)
 java.util.concurrent.locks.LockSupport.park(LockSupport.java:175)
 java.util.concurrent.locks.AbstractQueuedSynchronizer$ConditionObject.await(AbstractQueuedSynchronizer.java:2039)
 java.util.concurrent.LinkedBlockingQueue.take(LinkedBlockingQueue.java:442)
 com.alibaba.nacos.naming.consistency.persistent.raft.RaftCore$Notifier.run(RaftCore.java:942)
 java.util.concurrent.Executors$RunnableAdapter.call(Executors.java:511)
 java.util.concurrent.FutureTask.run(FutureTask.java:266)
 java.util.concurrent.ScheduledThreadPoolExecutor$ScheduledFutureTask.access$201(ScheduledThreadPoolExecutor.java:180)
 java.util.concurrent.ScheduledThreadPoolExecutor$ScheduledFutureTask.run(ScheduledThreadPoolExecutor.java:293)
 java.util.concurrent.ThreadPoolExecutor.runWorker(ThreadPoolExecutor.java:1142)
 java.util.concurrent.ThreadPoolExecutor$Worker.run(ThreadPoolExecutor.java:617)
 java.lang.Thread.run(Thread.java:745)

2020-02-25 11:34:02,851 WARN The web application [nacos] appears to have started a thread named [com.alibaba.nacos.naming.timer] but has failed to stop it. This is very likely to create a memory leak. Stack trace of thread:
 java.lang.Thread.sleep(Native Method)
 com.alibaba.nacos.naming.consistency.ephemeral.distro.DistroConsistencyServiceImpl.load(DistroConsistencyServiceImpl.java:147)
 com.alibaba.nacos.naming.consistency.ephemeral.distro.DistroConsistencyServiceImpl$LoadDataTask.run(DistroConsistencyServiceImpl.java:130)
 java.util.concurrent.Executors$RunnableAdapter.call(Executors.java:511)
 java.util.concurrent.FutureTask.run(FutureTask.java:266)
 java.util.concurrent.ScheduledThreadPoolExecutor$ScheduledFutureTask.access$201(ScheduledThreadPoolExecutor.java:180)
 java.util.concurrent.ScheduledThreadPoolExecutor$ScheduledFutureTask.run(ScheduledThreadPoolExecutor.java:293)
 java.util.concurrent.ThreadPoolExecutor.runWorker(ThreadPoolExecutor.java:1142)
 java.util.concurrent.ThreadPoolExecutor$Worker.run(ThreadPoolExecutor.java:617)
 java.lang.Thread.run(Thread.java:745)

2020-02-25 11:34:02,852 WARN The web application [nacos] appears to have started a thread named [com.alibaba.nacos.naming.timer] but has failed to stop it. This is very likely to create a memory leak. Stack trace of thread:
 sun.misc.Unsafe.park(Native Method)
 java.util.concurrent.locks.LockSupport.park(LockSupport.java:175)
 java.util.concurrent.locks.AbstractQueuedSynchronizer$ConditionObject.await(AbstractQueuedSynchronizer.java:2039)
 java.util.concurrent.ScheduledThreadPoolExecutor$DelayedWorkQueue.take(ScheduledThreadPoolExecutor.java:1088)
 java.util.concurrent.ScheduledThreadPoolExecutor$DelayedWorkQueue.take(ScheduledThreadPoolExecutor.java:809)
 java.util.concurrent.ThreadPoolExecutor.getTask(ThreadPoolExecutor.java:1067)
 java.util.concurrent.ThreadPoolExecutor.runWorker(ThreadPoolExecutor.java:1127)
 java.util.concurrent.ThreadPoolExecutor$Worker.run(ThreadPoolExecutor.java:617)
 java.lang.Thread.run(Thread.java:745)

2020-02-25 11:34:02,852 WARN The web application [nacos] appears to have started a thread named [com.alibaba.nacos.naming.timer] but has failed to stop it. This is very likely to create a memory leak. Stack trace of thread:
 sun.misc.Unsafe.park(Native Method)
 java.util.concurrent.locks.LockSupport.park(LockSupport.java:175)
 java.util.concurrent.locks.AbstractQueuedSynchronizer$ConditionObject.await(AbstractQueuedSynchronizer.java:2039)
 java.util.concurrent.ScheduledThreadPoolExecutor$DelayedWorkQueue.take(ScheduledThreadPoolExecutor.java:1088)
 java.util.concurrent.ScheduledThreadPoolExecutor$DelayedWorkQueue.take(ScheduledThreadPoolExecutor.java:809)
 java.util.concurrent.ThreadPoolExecutor.getTask(ThreadPoolExecutor.java:1067)
 java.util.concurrent.ThreadPoolExecutor.runWorker(ThreadPoolExecutor.java:1127)
 java.util.concurrent.ThreadPoolExecutor$Worker.run(ThreadPoolExecutor.java:617)
 java.lang.Thread.run(Thread.java:745)

2020-02-25 11:34:02,853 WARN The web application [nacos] appears to have started a thread named [com.alibaba.nacos.naming.timer] but has failed to stop it. This is very likely to create a memory leak. Stack trace of thread:
 sun.misc.Unsafe.park(Native Method)
 java.util.concurrent.locks.LockSupport.park(LockSupport.java:175)
 java.util.concurrent.locks.AbstractQueuedSynchronizer$ConditionObject.await(AbstractQueuedSynchronizer.java:2039)
 java.util.concurrent.ScheduledThreadPoolExecutor$DelayedWorkQueue.take(ScheduledThreadPoolExecutor.java:1088)
 java.util.concurrent.ScheduledThreadPoolExecutor$DelayedWorkQueue.take(ScheduledThreadPoolExecutor.java:809)
 java.util.concurrent.ThreadPoolExecutor.getTask(ThreadPoolExecutor.java:1067)
 java.util.concurrent.ThreadPoolExecutor.runWorker(ThreadPoolExecutor.java:1127)
 java.util.concurrent.ThreadPoolExecutor$Worker.run(ThreadPoolExecutor.java:617)
 java.lang.Thread.run(Thread.java:745)

2020-02-25 11:34:02,853 WARN The web application [nacos] appears to have started a thread named [com.alibaba.nacos.naming.distro.data.syncer] but has failed to stop it. This is very likely to create a memory leak. Stack trace of thread:
 sun.misc.Unsafe.park(Native Method)
 java.util.concurrent.locks.LockSupport.parkNanos(LockSupport.java:215)
 java.util.concurrent.locks.AbstractQueuedSynchronizer$ConditionObject.awaitNanos(AbstractQueuedSynchronizer.java:2078)
 java.util.concurrent.ScheduledThreadPoolExecutor$DelayedWorkQueue.take(ScheduledThreadPoolExecutor.java:1093)
 java.util.concurrent.ScheduledThreadPoolExecutor$DelayedWorkQueue.take(ScheduledThreadPoolExecutor.java:809)
 java.util.concurrent.ThreadPoolExecutor.getTask(ThreadPoolExecutor.java:1067)
 java.util.concurrent.ThreadPoolExecutor.runWorker(ThreadPoolExecutor.java:1127)
 java.util.concurrent.ThreadPoolExecutor$Worker.run(ThreadPoolExecutor.java:617)
 java.lang.Thread.run(Thread.java:745)

2020-02-25 11:34:02,854 WARN The web application [nacos] appears to have started a thread named [com.alibaba.nacos.naming.distro.task.dispatcher] but has failed to stop it. This is very likely to create a memory leak. Stack trace of thread:
 sun.misc.Unsafe.park(Native Method)
 java.util.concurrent.locks.LockSupport.parkNanos(LockSupport.java:215)
 java.util.concurrent.locks.AbstractQueuedSynchronizer$ConditionObject.awaitNanos(AbstractQueuedSynchronizer.java:2078)
 java.util.concurrent.LinkedBlockingQueue.poll(LinkedBlockingQueue.java:467)
 com.alibaba.nacos.naming.consistency.ephemeral.distro.TaskDispatcher$TaskScheduler.run(TaskDispatcher.java:94)
 java.util.concurrent.Executors$RunnableAdapter.call(Executors.java:511)
 java.util.concurrent.FutureTask.run(FutureTask.java:266)
 java.util.concurrent.ScheduledThreadPoolExecutor$ScheduledFutureTask.access$201(ScheduledThreadPoolExecutor.java:180)
 java.util.concurrent.ScheduledThreadPoolExecutor$ScheduledFutureTask.run(ScheduledThreadPoolExecutor.java:293)
 java.util.concurrent.ThreadPoolExecutor.runWorker(ThreadPoolExecutor.java:1142)
 java.util.concurrent.ThreadPoolExecutor$Worker.run(ThreadPoolExecutor.java:617)
 java.lang.Thread.run(Thread.java:745)

2020-02-25 11:34:02,855 WARN The web application [nacos] appears to have started a thread named [com.alibaba.nacos.naming.distro.task.dispatcher] but has failed to stop it. This is very likely to create a memory leak. Stack trace of thread:
 sun.misc.Unsafe.park(Native Method)
 java.util.concurrent.locks.LockSupport.parkNanos(LockSupport.java:215)
 java.util.concurrent.locks.AbstractQueuedSynchronizer$ConditionObject.awaitNanos(AbstractQueuedSynchronizer.java:2078)
 java.util.concurrent.LinkedBlockingQueue.poll(LinkedBlockingQueue.java:467)
 com.alibaba.nacos.naming.consistency.ephemeral.distro.TaskDispatcher$TaskScheduler.run(TaskDispatcher.java:94)
 java.util.concurrent.Executors$RunnableAdapter.call(Executors.java:511)
 java.util.concurrent.FutureTask.run(FutureTask.java:266)
 java.util.concurrent.ScheduledThreadPoolExecutor$ScheduledFutureTask.access$201(ScheduledThreadPoolExecutor.java:180)
 java.util.concurrent.ScheduledThreadPoolExecutor$ScheduledFutureTask.run(ScheduledThreadPoolExecutor.java:293)
 java.util.concurrent.ThreadPoolExecutor.runWorker(ThreadPoolExecutor.java:1142)
 java.util.concurrent.ThreadPoolExecutor$Worker.run(ThreadPoolExecutor.java:617)
 java.lang.Thread.run(Thread.java:745)

2020-02-25 11:34:02,855 WARN The web application [nacos] appears to have started a thread named [com.alibaba.nacos.naming.distro.task.dispatcher] but has failed to stop it. This is very likely to create a memory leak. Stack trace of thread:
 sun.misc.Unsafe.park(Native Method)
 java.util.concurrent.locks.LockSupport.parkNanos(LockSupport.java:215)
 java.util.concurrent.locks.AbstractQueuedSynchronizer$ConditionObject.awaitNanos(AbstractQueuedSynchronizer.java:2078)
 java.util.concurrent.LinkedBlockingQueue.poll(LinkedBlockingQueue.java:467)
 com.alibaba.nacos.naming.consistency.ephemeral.distro.TaskDispatcher$TaskScheduler.run(TaskDispatcher.java:94)
 java.util.concurrent.Executors$RunnableAdapter.call(Executors.java:511)
 java.util.concurrent.FutureTask.run(FutureTask.java:266)
 java.util.concurrent.ScheduledThreadPoolExecutor$ScheduledFutureTask.access$201(ScheduledThreadPoolExecutor.java:180)
 java.util.concurrent.ScheduledThreadPoolExecutor$ScheduledFutureTask.run(ScheduledThreadPoolExecutor.java:293)
 java.util.concurrent.ThreadPoolExecutor.runWorker(ThreadPoolExecutor.java:1142)
 java.util.concurrent.ThreadPoolExecutor$Worker.run(ThreadPoolExecutor.java:617)
 java.lang.Thread.run(Thread.java:745)

2020-02-25 11:34:02,856 WARN The web application [nacos] appears to have started a thread named [com.alibaba.nacos.naming.distro.task.dispatcher] but has failed to stop it. This is very likely to create a memory leak. Stack trace of thread:
 sun.misc.Unsafe.park(Native Method)
 java.util.concurrent.locks.LockSupport.parkNanos(LockSupport.java:215)
 java.util.concurrent.locks.AbstractQueuedSynchronizer$ConditionObject.awaitNanos(AbstractQueuedSynchronizer.java:2078)
 java.util.concurrent.LinkedBlockingQueue.poll(LinkedBlockingQueue.java:467)
 com.alibaba.nacos.naming.consistency.ephemeral.distro.TaskDispatcher$TaskScheduler.run(TaskDispatcher.java:94)
 java.util.concurrent.Executors$RunnableAdapter.call(Executors.java:511)
 java.util.concurrent.FutureTask.run(FutureTask.java:266)
 java.util.concurrent.ScheduledThreadPoolExecutor$ScheduledFutureTask.access$201(ScheduledThreadPoolExecutor.java:180)
 java.util.concurrent.ScheduledThreadPoolExecutor$ScheduledFutureTask.run(ScheduledThreadPoolExecutor.java:293)
 java.util.concurrent.ThreadPoolExecutor.runWorker(ThreadPoolExecutor.java:1142)
 java.util.concurrent.ThreadPoolExecutor$Worker.run(ThreadPoolExecutor.java:617)
 java.lang.Thread.run(Thread.java:745)

2020-02-25 11:34:02,857 WARN The web application [nacos] appears to have started a thread named [com.alibaba.nacos.naming.timer] but has failed to stop it. This is very likely to create a memory leak. Stack trace of thread:
 sun.misc.Unsafe.park(Native Method)
 java.util.concurrent.locks.LockSupport.park(LockSupport.java:175)
 java.util.concurrent.locks.AbstractQueuedSynchronizer$ConditionObject.await(AbstractQueuedSynchronizer.java:2039)
 java.util.concurrent.ScheduledThreadPoolExecutor$DelayedWorkQueue.take(ScheduledThreadPoolExecutor.java:1088)
 java.util.concurrent.ScheduledThreadPoolExecutor$DelayedWorkQueue.take(ScheduledThreadPoolExecutor.java:809)
 java.util.concurrent.ThreadPoolExecutor.getTask(ThreadPoolExecutor.java:1067)
 java.util.concurrent.ThreadPoolExecutor.runWorker(ThreadPoolExecutor.java:1127)
 java.util.concurrent.ThreadPoolExecutor$Worker.run(ThreadPoolExecutor.java:617)
 java.lang.Thread.run(Thread.java:745)

2020-02-25 11:34:02,858 WARN The web application [nacos] appears to have started a thread named [com.alibaba.nacos.naming.distro.notifier] but has failed to stop it. This is very likely to create a memory leak. Stack trace of thread:
 sun.misc.Unsafe.park(Native Method)
 java.util.concurrent.locks.LockSupport.park(LockSupport.java:175)
 java.util.concurrent.locks.AbstractQueuedSynchronizer$ConditionObject.await(AbstractQueuedSynchronizer.java:2039)
 java.util.concurrent.LinkedBlockingQueue.take(LinkedBlockingQueue.java:442)
 com.alibaba.nacos.naming.consistency.ephemeral.distro.DistroConsistencyServiceImpl$Notifier.run(DistroConsistencyServiceImpl.java:403)
 java.util.concurrent.Executors$RunnableAdapter.call(Executors.java:511)
 java.util.concurrent.FutureTask.run(FutureTask.java:266)
 java.util.concurrent.ScheduledThreadPoolExecutor$ScheduledFutureTask.access$201(ScheduledThreadPoolExecutor.java:180)
 java.util.concurrent.ScheduledThreadPoolExecutor$ScheduledFutureTask.run(ScheduledThreadPoolExecutor.java:293)
 java.util.concurrent.ThreadPoolExecutor.runWorker(ThreadPoolExecutor.java:1142)
 java.util.concurrent.ThreadPoolExecutor$Worker.run(ThreadPoolExecutor.java:617)
 java.lang.Thread.run(Thread.java:745)

2020-02-25 11:34:02,858 WARN The web application [nacos] appears to have started a thread named [com.alibaba.nacos.naming.timer] but has failed to stop it. This is very likely to create a memory leak. Stack trace of thread:
 sun.misc.Unsafe.park(Native Method)
 java.util.concurrent.locks.LockSupport.parkNanos(LockSupport.java:215)
 java.util.concurrent.locks.AbstractQueuedSynchronizer$ConditionObject.awaitNanos(AbstractQueuedSynchronizer.java:2078)
 java.util.concurrent.ScheduledThreadPoolExecutor$DelayedWorkQueue.take(ScheduledThreadPoolExecutor.java:1093)
 java.util.concurrent.ScheduledThreadPoolExecutor$DelayedWorkQueue.take(ScheduledThreadPoolExecutor.java:809)
 java.util.concurrent.ThreadPoolExecutor.getTask(ThreadPoolExecutor.java:1067)
 java.util.concurrent.ThreadPoolExecutor.runWorker(ThreadPoolExecutor.java:1127)
 java.util.concurrent.ThreadPoolExecutor$Worker.run(ThreadPoolExecutor.java:617)
 java.lang.Thread.run(Thread.java:745)

2020-02-25 11:34:02,908 INFO Nacos logs files: C:/Users/Administrator/Desktop/test/nacos/nacos\logs\

2020-02-25 11:34:02,909 INFO Nacos conf files: C:/Users/Administrator/Desktop/test/nacos/nacos\conf\

2020-02-25 11:34:02,909 INFO Nacos data files: C:/Users/Administrator/Desktop/test/nacos/nacos\data\

2020-02-25 11:34:02,909 ERROR Nacos failed to start, please see C:/Users/Administrator/Desktop/test/nacos/nacos/logs/nacos.log for more details.

2020-02-25 11:34:02,926 INFO 

Error starting ApplicationContext. To display the conditions report re-run your application with 'debug' enabled.

2020-02-25 11:34:02,929 ERROR Application run failed

org.springframework.beans.factory.BeanCreationException: Error creating bean with name 'jwtTokenUtils': Invocation of init method failed; nested exception is java.lang.IllegalStateException: Unable to invoke class method io.jsonwebtoken.impl.crypto.MacProvider#generateKey.  Ensure the necessary implementation is in the runtime classpath.
	at org.springframework.beans.factory.annotation.InitDestroyAnnotationBeanPostProcessor.postProcessBeforeInitialization(InitDestroyAnnotationBeanPostProcessor.java:139)
	at org.springframework.beans.factory.support.AbstractAutowireCapableBeanFactory.applyBeanPostProcessorsBeforeInitialization(AbstractAutowireCapableBeanFactory.java:419)
	at org.springframework.beans.factory.support.AbstractAutowireCapableBeanFactory.initializeBean(AbstractAutowireCapableBeanFactory.java:1737)
	at org.springframework.beans.factory.support.AbstractAutowireCapableBeanFactory.doCreateBean(AbstractAutowireCapableBeanFactory.java:576)
	at org.springframework.beans.factory.support.AbstractAutowireCapableBeanFactory.createBean(AbstractAutowireCapableBeanFactory.java:498)
	at org.springframework.beans.factory.support.AbstractBeanFactory.lambda$doGetBean$0(AbstractBeanFactory.java:320)
	at org.springframework.beans.factory.support.DefaultSingletonBeanRegistry.getSingleton(DefaultSingletonBeanRegistry.java:222)
	at org.springframework.beans.factory.support.AbstractBeanFactory.doGetBean(AbstractBeanFactory.java:318)
	at org.springframework.beans.factory.support.AbstractBeanFactory.getBean(AbstractBeanFactory.java:199)
	at org.springframework.beans.factory.support.DefaultListableBeanFactory.preInstantiateSingletons(DefaultListableBeanFactory.java:846)
	at org.springframework.context.support.AbstractApplicationContext.finishBeanFactoryInitialization(AbstractApplicationContext.java:863)
	at org.springframework.context.support.AbstractApplicationContext.refresh(AbstractApplicationContext.java:546)
	at org.springframework.boot.web.servlet.context.ServletWebServerApplicationContext.refresh(ServletWebServerApplicationContext.java:142)
	at org.springframework.boot.SpringApplication.refresh(SpringApplication.java:775)
	at org.springframework.boot.SpringApplication.refreshContext(SpringApplication.java:397)
	at org.springframework.boot.SpringApplication.run(SpringApplication.java:316)
	at org.springframework.boot.SpringApplication.run(SpringApplication.java:1260)
	at org.springframework.boot.SpringApplication.run(SpringApplication.java:1248)
	at com.alibaba.nacos.Nacos.main(Nacos.java:35)
	at sun.reflect.NativeMethodAccessorImpl.invoke0(Native Method)
	at sun.reflect.NativeMethodAccessorImpl.invoke(NativeMethodAccessorImpl.java:62)
	at sun.reflect.DelegatingMethodAccessorImpl.invoke(DelegatingMethodAccessorImpl.java:43)
	at java.lang.reflect.Method.invoke(Method.java:498)
	at org.springframework.boot.loader.MainMethodRunner.run(MainMethodRunner.java:48)
	at org.springframework.boot.loader.Launcher.launch(Launcher.java:87)
	at org.springframework.boot.loader.Launcher.launch(Launcher.java:50)
	at org.springframework.boot.loader.PropertiesLauncher.main(PropertiesLauncher.java:593)
Caused by: java.lang.IllegalStateException: Unable to invoke class method io.jsonwebtoken.impl.crypto.MacProvider#generateKey.  Ensure the necessary implementation is in the runtime classpath.
	at io.jsonwebtoken.lang.Classes.invokeStatic(Classes.java:202)
	at io.jsonwebtoken.security.Keys.secretKeyFor(Keys.java:121)
	at com.alibaba.nacos.console.utils.JwtTokenUtils.init(JwtTokenUtils.java:78)
	at sun.reflect.NativeMethodAccessorImpl.invoke0(Native Method)
	at sun.reflect.NativeMethodAccessorImpl.invoke(NativeMethodAccessorImpl.java:62)
	at sun.reflect.DelegatingMethodAccessorImpl.invoke(DelegatingMethodAccessorImpl.java:43)
	at java.lang.reflect.Method.invoke(Method.java:498)
	at org.springframework.beans.factory.annotation.InitDestroyAnnotationBeanPostProcessor$LifecycleElement.invoke(InitDestroyAnnotationBeanPostProcessor.java:363)
	at org.springframework.beans.factory.annotation.InitDestroyAnnotationBeanPostProcessor$LifecycleMetadata.invokeInitMethods(InitDestroyAnnotationBeanPostProcessor.java:307)
	at org.springframework.beans.factory.annotation.InitDestroyAnnotationBeanPostProcessor.postProcessBeforeInitialization(InitDestroyAnnotationBeanPostProcessor.java:136)
	... 26 common frames omitted
Caused by: java.lang.reflect.InvocationTargetException: null
	at sun.reflect.NativeMethodAccessorImpl.invoke0(Native Method)
	at sun.reflect.NativeMethodAccessorImpl.invoke(NativeMethodAccessorImpl.java:62)
	at sun.reflect.DelegatingMethodAccessorImpl.invoke(DelegatingMethodAccessorImpl.java:43)
	at java.lang.reflect.Method.invoke(Method.java:498)
	at io.jsonwebtoken.lang.Classes.invokeStatic(Classes.java:198)
	... 35 common frames omitted
Caused by: java.lang.IllegalStateException: The HmacSHA256 algorithm is not available.  This should never happen on JDK 7 or later - please report this to the JJWT developers.
	at io.jsonwebtoken.impl.crypto.MacProvider.generateKey(MacProvider.java:94)
	at io.jsonwebtoken.impl.crypto.MacProvider.generateKey(MacProvider.java:63)
	... 40 common frames omitted
Caused by: java.security.NoSuchAlgorithmException: HmacSHA256 KeyGenerator not available
	at javax.crypto.KeyGenerator.<init>(KeyGenerator.java:169)
	at javax.crypto.KeyGenerator.getInstance(KeyGenerator.java:223)
	at io.jsonwebtoken.impl.crypto.MacProvider.generateKey(MacProvider.java:92)
	... 41 common frames omitted
2020-02-25 11:34:01,278 INFO Bean 'org.springframework.security.config.annotation.configuration.ObjectPostProcessorConfiguration' of type [org.springframework.security.config.annotation.configuration.ObjectPostProcessorConfiguration$$EnhancerBySpringCGLIB$$1b68076a] is not eligible for getting processed by all BeanPostProcessors (for example: not eligible for auto-proxying)

2020-02-25 11:34:07,345 INFO Bean 'objectPostProcessor' of type [org.springframework.security.config.annotation.configuration.AutowireBeanFactoryObjectPostProcessor] is not eligible for getting processed by all BeanPostProcessors (for example: not eligible for auto-proxying)

2020-02-25 11:34:07,350 INFO Bean 'org.springframework.security.access.expression.method.DefaultMethodSecurityExpressionHandler@3ad83a66' of type [org.springframework.security.access.expression.method.DefaultMethodSecurityExpressionHandler] is not eligible for getting processed by all BeanPostProcessors (for example: not eligible for auto-proxying)

2020-02-25 11:34:07,353 INFO Bean 'org.springframework.security.config.annotation.method.configuration.GlobalMethodSecurityConfiguration' of type [org.springframework.security.config.annotation.method.configuration.GlobalMethodSecurityConfiguration$$EnhancerBySpringCGLIB$$403caa1c] is not eligible for getting processed by all BeanPostProcessors (for example: not eligible for auto-proxying)

2020-02-25 11:34:07,362 INFO Bean 'methodSecurityMetadataSource' of type [org.springframework.security.access.method.DelegatingMethodSecurityMetadataSource] is not eligible for getting processed by all BeanPostProcessors (for example: not eligible for auto-proxying)

2020-02-25 11:34:08,374 INFO Tomcat initialized with port(s): 8848 (http)

2020-02-25 11:34:08,422 INFO Starting service [Tomcat]

2020-02-25 11:34:08,422 INFO Starting Servlet Engine: Apache Tomcat/9.0.13

2020-02-25 11:34:08,440 INFO The APR based Apache Tomcat Native library which allows optimal performance in production environments was not found on the java.library.path: [E:\pro_tools\jdk1.8.0_111\bin;C:\Windows\Sun\Java\bin;C:\Windows\system32;C:\Windows;C:\Windows\system32;C:\Windows;C:\Windows\System32\Wbem;E:\pro_tools\Oracle10g\app\oracle\product\10.2.0\server\Bin;C:\Windows\System32\WindowsPowerShell\v1.0\;E:\pro_tools\IBM.Rational.Rose.Enterprise.v7.0\common;E:\job_nessTools\PLSQL\instantclient_11_2;E:\pro_tools\jdk1.8.0_111\bin;E:\pro_tools\jdk1.8.0_111\jre\bin;E:\job_nessTools\Yarn\bin;E:\pro_tools\MySQL\MySQL Server 5.1\bin;E:\job_nessTools\Gradle\gradle-4.5-all\bin;F:\sinosoft\Git\Git\cmd;E:\pro_tools\erl10.0.1\bin;E:\pro_tools\RabbitMQServer\rabbitmq_server-3.7.8\sbin;E:\JOB\OpenVPN\bin;E:\JOB\python2.7.5;E:\JOB\python2.7.5\Scripts;E:\JOB\go113\GO\bin;E:\job_nessTools\node-v9.3.0-x64\;E:\JOB\gcc\mingw64\bin;E:\pro_tools\apache-maven-3.5.4\bin;C:\Users\Administrator\AppData\Local\Microsoft\WindowsApps;C:\Users\Administrator\go\bin;;E:\JOB\Microsoft VS Code\bin;E:\JOB\Fiddler;C:\Users\Administrator\go\bin;C:\Users\Administrator\AppData\Roaming\npm;.]

2020-02-25 11:34:08,682 INFO Initializing Spring embedded WebApplicationContext

2020-02-25 11:34:08,685 INFO Root WebApplicationContext: initialization completed in 11548 ms

2020-02-25 15:04:46,783 INFO Starting Nacos v1.2.0-beta.1 on 2G02Q634KQ7FTOA with PID 11496 (C:\Users\Administrator\Desktop\test\nacos\nacos\target\nacos-server.jar started by WangLan in C:\Users\Administrator\Desktop\test\nacos\nacos\bin)

2020-02-25 15:04:46,789 INFO The following profiles are active: standalone

2020-02-25 15:04:53,631 INFO Bean 'org.springframework.security.config.annotation.configuration.ObjectPostProcessorConfiguration' of type [org.springframework.security.config.annotation.configuration.ObjectPostProcessorConfiguration$$EnhancerBySpringCGLIB$$630968f0] is not eligible for getting processed by all BeanPostProcessors (for example: not eligible for auto-proxying)

2020-02-25 15:04:53,867 INFO Bean 'objectPostProcessor' of type [org.springframework.security.config.annotation.configuration.AutowireBeanFactoryObjectPostProcessor] is not eligible for getting processed by all BeanPostProcessors (for example: not eligible for auto-proxying)

2020-02-25 15:04:53,873 INFO Bean 'org.springframework.security.access.expression.method.DefaultMethodSecurityExpressionHandler@f1da57d' of type [org.springframework.security.access.expression.method.DefaultMethodSecurityExpressionHandler] is not eligible for getting processed by all BeanPostProcessors (for example: not eligible for auto-proxying)

2020-02-25 15:04:53,880 INFO Bean 'org.springframework.security.config.annotation.method.configuration.GlobalMethodSecurityConfiguration' of type [org.springframework.security.config.annotation.method.configuration.GlobalMethodSecurityConfiguration$$EnhancerBySpringCGLIB$$87de0ba2] is not eligible for getting processed by all BeanPostProcessors (for example: not eligible for auto-proxying)

2020-02-25 15:04:53,891 INFO Bean 'methodSecurityMetadataSource' of type [org.springframework.security.access.method.DelegatingMethodSecurityMetadataSource] is not eligible for getting processed by all BeanPostProcessors (for example: not eligible for auto-proxying)

2020-02-25 15:04:55,316 INFO Tomcat initialized with port(s): 8848 (http)

2020-02-25 15:04:55,364 INFO Starting service [Tomcat]

2020-02-25 15:04:55,365 INFO Starting Servlet Engine: Apache Tomcat/9.0.13

2020-02-25 15:04:55,441 INFO The APR based Apache Tomcat Native library which allows optimal performance in production environments was not found on the java.library.path: [E:\pro_tools\jdk1.8.0_111\bin;C:\Windows\Sun\Java\bin;C:\Windows\system32;C:\Windows;C:\Windows\system32;C:\Windows;C:\Windows\System32\Wbem;E:\pro_tools\Oracle10g\app\oracle\product\10.2.0\server\Bin;C:\Windows\System32\WindowsPowerShell\v1.0\;E:\pro_tools\IBM.Rational.Rose.Enterprise.v7.0\common;E:\job_nessTools\PLSQL\instantclient_11_2;E:\pro_tools\jdk1.8.0_111\bin;E:\pro_tools\jdk1.8.0_111\jre\bin;E:\job_nessTools\Yarn\bin;E:\pro_tools\MySQL\MySQL Server 5.1\bin;E:\job_nessTools\Gradle\gradle-4.5-all\bin;F:\sinosoft\Git\Git\cmd;E:\pro_tools\erl10.0.1\bin;E:\pro_tools\RabbitMQServer\rabbitmq_server-3.7.8\sbin;E:\JOB\OpenVPN\bin;E:\JOB\python2.7.5;E:\JOB\python2.7.5\Scripts;E:\JOB\go113\GO\bin;E:\job_nessTools\node-v9.3.0-x64\;E:\JOB\gcc\mingw64\bin;E:\pro_tools\apache-maven-3.5.4\bin;C:\Users\Administrator\AppData\Local\Microsoft\WindowsApps;C:\Users\Administrator\go\bin;;E:\JOB\Microsoft VS Code\bin;E:\JOB\Fiddler;C:\Users\Administrator\go\bin;C:\Users\Administrator\AppData\Roaming\npm;.]

2020-02-25 15:04:55,646 INFO Initializing Spring embedded WebApplicationContext

2020-02-25 15:04:55,646 INFO Root WebApplicationContext: initialization completed in 8739 ms

2020-02-25 15:04:59,628 INFO Reflections took 64 ms to scan 1 urls, producing 6 keys and 24 values 

2020-02-25 15:04:59,705 INFO Reflections took 6 ms to scan 1 urls, producing 2 keys and 12 values 

2020-02-25 15:04:59,722 INFO Reflections took 9 ms to scan 1 urls, producing 3 keys and 15 values 

2020-02-25 15:05:01,153 INFO Use Mysql as the driver

2020-02-25 15:05:02,213 INFO Initializing ExecutorService 'applicationTaskExecutor'

2020-02-25 15:05:02,610 INFO Adding welcome page: class path resource [static/index.html]

2020-02-25 15:05:03,171 INFO Creating filter chain: Ant [pattern='/**'], []

2020-02-25 15:05:03,227 INFO Creating filter chain: any request, [org.springframework.security.web.context.request.async.WebAsyncManagerIntegrationFilter@72e34f77, org.springframework.security.web.context.SecurityContextPersistenceFilter@549621f3, org.springframework.security.web.header.HeaderWriterFilter@4985cbcb, org.springframework.security.web.csrf.CsrfFilter@7876d598, org.springframework.security.web.authentication.logout.LogoutFilter@6fa590ba, org.springframework.security.web.savedrequest.RequestCacheAwareFilter@32232e55, org.springframework.security.web.servletapi.SecurityContextHolderAwareRequestFilter@293bb8a5, org.springframework.security.web.authentication.AnonymousAuthenticationFilter@7bf9b098, org.springframework.security.web.session.SessionManagementFilter@3c9168dc, org.springframework.security.web.access.ExceptionTranslationFilter@5af28b27]

2020-02-25 15:05:03,364 INFO Exposing 2 endpoint(s) beneath base path '/actuator'

2020-02-25 15:05:03,432 INFO Initializing ExecutorService 'taskScheduler'

2020-02-25 15:05:03,629 INFO Tomcat started on port(s): 8848 (http) with context path '/nacos'

2020-02-25 15:05:03,639 INFO Started Nacos in 18.967 seconds (JVM running for 20.303)

2020-02-25 15:05:03,639 INFO Nacos logs files: C:\Users\Administrator\Desktop\test\nacos\nacos\logs\

2020-02-25 15:05:03,640 INFO Nacos conf files: C:\Users\Administrator\Desktop\test\nacos\nacos\conf\

2020-02-25 15:05:03,641 INFO Nacos data files: C:\Users\Administrator\Desktop\test\nacos\nacos\data\

2020-02-25 15:05:03,642 INFO Nacos started successfully in stand alone mode.

2020-02-25 15:05:05,976 INFO Initializing Spring DispatcherServlet 'dispatcherServlet'

2020-02-25 15:05:05,976 INFO Initializing Servlet 'dispatcherServlet'

2020-02-25 15:05:05,995 INFO Completed initialization in 18 ms

2020-02-25 15:05:29,505 INFO Shutting down ExecutorService 'taskScheduler'

2020-02-25 15:05:29,509 INFO Shutting down ExecutorService 'applicationTaskExecutor'

2020-02-25 15:06:52,834 INFO Starting Nacos v1.2.0-beta.1 on 2G02Q634KQ7FTOA with PID 12184 (C:\Users\Administrator\Desktop\test\nacos\nacos\target\nacos-server.jar started by WangLan in C:\Users\Administrator\Desktop\test\nacos\nacos\bin)

2020-02-25 15:06:52,838 INFO The following profiles are active: standalone

2020-02-25 15:06:58,347 INFO Bean 'org.springframework.security.config.annotation.configuration.ObjectPostProcessorConfiguration' of type [org.springframework.security.config.annotation.configuration.ObjectPostProcessorConfiguration$$EnhancerBySpringCGLIB$$554baa36] is not eligible for getting processed by all BeanPostProcessors (for example: not eligible for auto-proxying)

2020-02-25 15:06:58,460 INFO Bean 'objectPostProcessor' of type [org.springframework.security.config.annotation.configuration.AutowireBeanFactoryObjectPostProcessor] is not eligible for getting processed by all BeanPostProcessors (for example: not eligible for auto-proxying)

2020-02-25 15:06:58,465 INFO Bean 'org.springframework.security.access.expression.method.DefaultMethodSecurityExpressionHandler@431cd9b2' of type [org.springframework.security.access.expression.method.DefaultMethodSecurityExpressionHandler] is not eligible for getting processed by all BeanPostProcessors (for example: not eligible for auto-proxying)

2020-02-25 15:06:58,468 INFO Bean 'org.springframework.security.config.annotation.method.configuration.GlobalMethodSecurityConfiguration' of type [org.springframework.security.config.annotation.method.configuration.GlobalMethodSecurityConfiguration$$EnhancerBySpringCGLIB$$7a204ce8] is not eligible for getting processed by all BeanPostProcessors (for example: not eligible for auto-proxying)

2020-02-25 15:06:58,482 INFO Bean 'methodSecurityMetadataSource' of type [org.springframework.security.access.method.DelegatingMethodSecurityMetadataSource] is not eligible for getting processed by all BeanPostProcessors (for example: not eligible for auto-proxying)

2020-02-25 15:06:59,634 INFO Tomcat initialized with port(s): 8848 (http)

2020-02-25 15:06:59,682 INFO Starting service [Tomcat]

2020-02-25 15:06:59,683 INFO Starting Servlet Engine: Apache Tomcat/9.0.13

2020-02-25 15:06:59,700 INFO The APR based Apache Tomcat Native library which allows optimal performance in production environments was not found on the java.library.path: [E:\pro_tools\jdk1.8.0_111\bin;C:\Windows\Sun\Java\bin;C:\Windows\system32;C:\Windows;C:\Windows\system32;C:\Windows;C:\Windows\System32\Wbem;E:\pro_tools\Oracle10g\app\oracle\product\10.2.0\server\Bin;C:\Windows\System32\WindowsPowerShell\v1.0\;E:\pro_tools\IBM.Rational.Rose.Enterprise.v7.0\common;E:\job_nessTools\PLSQL\instantclient_11_2;E:\pro_tools\jdk1.8.0_111\bin;E:\pro_tools\jdk1.8.0_111\jre\bin;E:\job_nessTools\Yarn\bin;E:\pro_tools\MySQL\MySQL Server 5.1\bin;E:\job_nessTools\Gradle\gradle-4.5-all\bin;F:\sinosoft\Git\Git\cmd;E:\pro_tools\erl10.0.1\bin;E:\pro_tools\RabbitMQServer\rabbitmq_server-3.7.8\sbin;E:\JOB\OpenVPN\bin;E:\JOB\python2.7.5;E:\JOB\python2.7.5\Scripts;E:\JOB\go113\GO\bin;E:\job_nessTools\node-v9.3.0-x64\;E:\JOB\gcc\mingw64\bin;E:\pro_tools\apache-maven-3.5.4\bin;C:\Users\Administrator\AppData\Local\Microsoft\WindowsApps;C:\Users\Administrator\go\bin;;E:\JOB\Microsoft VS Code\bin;E:\JOB\Fiddler;C:\Users\Administrator\go\bin;C:\Users\Administrator\AppData\Roaming\npm;.]

2020-02-25 15:06:59,876 INFO Initializing Spring embedded WebApplicationContext

2020-02-25 15:06:59,876 INFO Root WebApplicationContext: initialization completed in 6900 ms

2020-02-25 15:07:03,691 INFO Reflections took 162 ms to scan 1 urls, producing 6 keys and 24 values 

2020-02-25 15:07:03,772 INFO Reflections took 6 ms to scan 1 urls, producing 2 keys and 12 values 

2020-02-25 15:07:03,794 INFO Reflections took 8 ms to scan 1 urls, producing 3 keys and 15 values 

2020-02-25 15:07:05,474 INFO Use Mysql as the driver

2020-02-25 15:48:34,185 INFO Starting Nacos v1.2.0-beta.1 on 2G02Q634KQ7FTOA with PID 10236 (C:\Users\Administrator\Desktop\test\nacos\nacos\target\nacos-server.jar started by WangLan in C:\Users\Administrator\Desktop\test\nacos\nacos\bin)

2020-02-25 15:48:34,189 INFO The following profiles are active: standalone

2020-02-25 15:48:37,973 INFO Bean 'org.springframework.security.config.annotation.configuration.ObjectPostProcessorConfiguration' of type [org.springframework.security.config.annotation.configuration.ObjectPostProcessorConfiguration$$EnhancerBySpringCGLIB$$6a4669b5] is not eligible for getting processed by all BeanPostProcessors (for example: not eligible for auto-proxying)

2020-02-25 15:48:38,121 INFO Bean 'objectPostProcessor' of type [org.springframework.security.config.annotation.configuration.AutowireBeanFactoryObjectPostProcessor] is not eligible for getting processed by all BeanPostProcessors (for example: not eligible for auto-proxying)

2020-02-25 15:48:38,126 INFO Bean 'org.springframework.security.access.expression.method.DefaultMethodSecurityExpressionHandler@338fc1d8' of type [org.springframework.security.access.expression.method.DefaultMethodSecurityExpressionHandler] is not eligible for getting processed by all BeanPostProcessors (for example: not eligible for auto-proxying)

2020-02-25 15:48:38,132 INFO Bean 'org.springframework.security.config.annotation.method.configuration.GlobalMethodSecurityConfiguration' of type [org.springframework.security.config.annotation.method.configuration.GlobalMethodSecurityConfiguration$$EnhancerBySpringCGLIB$$8f1b0c67] is not eligible for getting processed by all BeanPostProcessors (for example: not eligible for auto-proxying)

2020-02-25 15:48:38,142 INFO Bean 'methodSecurityMetadataSource' of type [org.springframework.security.access.method.DelegatingMethodSecurityMetadataSource] is not eligible for getting processed by all BeanPostProcessors (for example: not eligible for auto-proxying)

2020-02-25 15:48:39,178 INFO Tomcat initialized with port(s): 8848 (http)

2020-02-25 15:48:39,223 INFO Starting service [Tomcat]

2020-02-25 15:48:39,223 INFO Starting Servlet Engine: Apache Tomcat/9.0.13

2020-02-25 15:48:39,242 INFO The APR based Apache Tomcat Native library which allows optimal performance in production environments was not found on the java.library.path: [E:\pro_tools\jdk1.8.0_111\bin;C:\Windows\Sun\Java\bin;C:\Windows\system32;C:\Windows;C:\Windows\system32;C:\Windows;C:\Windows\System32\Wbem;E:\pro_tools\Oracle10g\app\oracle\product\10.2.0\server\Bin;C:\Windows\System32\WindowsPowerShell\v1.0\;E:\pro_tools\IBM.Rational.Rose.Enterprise.v7.0\common;E:\job_nessTools\PLSQL\instantclient_11_2;E:\pro_tools\jdk1.8.0_111\bin;E:\pro_tools\jdk1.8.0_111\jre\bin;E:\job_nessTools\Yarn\bin;E:\pro_tools\MySQL\MySQL Server 5.1\bin;E:\job_nessTools\Gradle\gradle-4.5-all\bin;F:\sinosoft\Git\Git\cmd;E:\pro_tools\erl10.0.1\bin;E:\pro_tools\RabbitMQServer\rabbitmq_server-3.7.8\sbin;E:\JOB\OpenVPN\bin;E:\JOB\python2.7.5;E:\JOB\python2.7.5\Scripts;E:\JOB\go113\GO\bin;E:\job_nessTools\node-v9.3.0-x64\;E:\JOB\gcc\mingw64\bin;E:\pro_tools\apache-maven-3.5.4\bin;C:\Users\Administrator\AppData\Local\Microsoft\WindowsApps;C:\Users\Administrator\go\bin;;E:\JOB\Microsoft VS Code\bin;E:\JOB\Fiddler;C:\Users\Administrator\go\bin;C:\Users\Administrator\AppData\Roaming\npm;.]

2020-02-25 15:48:39,384 INFO Initializing Spring embedded WebApplicationContext

2020-02-25 15:48:39,384 INFO Root WebApplicationContext: initialization completed in 5065 ms

2020-02-25 15:48:42,677 INFO Reflections took 72 ms to scan 1 urls, producing 6 keys and 24 values 

2020-02-25 15:48:42,734 INFO Reflections took 7 ms to scan 1 urls, producing 2 keys and 12 values 

2020-02-25 15:48:42,749 INFO Reflections took 7 ms to scan 1 urls, producing 3 keys and 15 values 

2020-02-25 15:48:44,184 INFO Use Mysql as the driver

2020-02-25 15:48:45,198 INFO Initializing ExecutorService 'applicationTaskExecutor'

2020-02-25 15:48:45,504 INFO Adding welcome page: class path resource [static/index.html]

2020-02-25 15:48:46,026 INFO Creating filter chain: Ant [pattern='/**'], []

2020-02-25 15:48:46,111 INFO Creating filter chain: any request, [org.springframework.security.web.context.request.async.WebAsyncManagerIntegrationFilter@15eebbff, org.springframework.security.web.context.SecurityContextPersistenceFilter@c260bdc, org.springframework.security.web.header.HeaderWriterFilter@4264b240, org.springframework.security.web.csrf.CsrfFilter@7a527389, org.springframework.security.web.authentication.logout.LogoutFilter@4baf352a, org.springframework.security.web.savedrequest.RequestCacheAwareFilter@2783717b, org.springframework.security.web.servletapi.SecurityContextHolderAwareRequestFilter@3f363cf5, org.springframework.security.web.authentication.AnonymousAuthenticationFilter@22d6f11, org.springframework.security.web.session.SessionManagementFilter@5ad10c1a, org.springframework.security.web.access.ExceptionTranslationFilter@25748410]

2020-02-25 15:48:46,280 INFO Exposing 2 endpoint(s) beneath base path '/actuator'

2020-02-25 15:48:46,331 INFO Initializing ExecutorService 'taskScheduler'

2020-02-25 15:48:46,515 INFO Tomcat started on port(s): 8848 (http) with context path '/nacos'

2020-02-25 15:48:46,526 INFO Started Nacos in 14.453 seconds (JVM running for 15.602)

2020-02-25 15:48:46,526 INFO Nacos logs files: C:\Users\Administrator\Desktop\test\nacos\nacos\logs\

2020-02-25 15:48:46,526 INFO Nacos conf files: C:\Users\Administrator\Desktop\test\nacos\nacos\conf\

2020-02-25 15:48:46,527 INFO Nacos data files: C:\Users\Administrator\Desktop\test\nacos\nacos\data\

2020-02-25 15:48:46,530 INFO Nacos started successfully in stand alone mode.

2020-02-25 15:48:49,049 INFO Initializing Spring DispatcherServlet 'dispatcherServlet'

2020-02-25 15:48:49,049 INFO Initializing Servlet 'dispatcherServlet'

2020-02-25 15:48:49,065 INFO Completed initialization in 15 ms

2020-02-25 15:58:43,835 INFO [capacityManagement] start correct usage

2020-02-25 15:58:43,867 INFO [capacityManagement] end correct usage, cost: 0s

2020-02-25 15:58:44,171 WARN clearConfigHistory start

2020-02-25 16:08:43,868 INFO [capacityManagement] start correct usage

2020-02-25 16:08:43,869 INFO [capacityManagement] end correct usage, cost: 0s

2020-02-25 16:08:44,187 WARN clearConfigHistory start

2020-02-25 16:17:54,509 INFO Shutting down ExecutorService 'taskScheduler'

2020-02-25 16:17:54,512 INFO Shutting down ExecutorService 'applicationTaskExecutor'

2020-02-25 16:25:05,963 INFO Starting Nacos v1.2.0-beta.1 on 2G02Q634KQ7FTOA with PID 11152 (C:\Users\Administrator\Desktop\test\需要下载的项目\nacos\nacos\target\nacos-server.jar started by WangLan in C:\Users\Administrator\Desktop\test\需要下载的项目\nacos\nacos\bin)

2020-02-25 16:25:05,970 INFO The following profiles are active: standalone

2020-02-25 16:25:12,837 INFO Bean 'org.springframework.security.config.annotation.configuration.ObjectPostProcessorConfiguration' of type [org.springframework.security.config.annotation.configuration.ObjectPostProcessorConfiguration$$EnhancerBySpringCGLIB$$c5c24470] is not eligible for getting processed by all BeanPostProcessors (for example: not eligible for auto-proxying)

2020-02-25 16:25:13,080 INFO Bean 'objectPostProcessor' of type [org.springframework.security.config.annotation.configuration.AutowireBeanFactoryObjectPostProcessor] is not eligible for getting processed by all BeanPostProcessors (for example: not eligible for auto-proxying)

2020-02-25 16:25:13,085 INFO Bean 'org.springframework.security.access.expression.method.DefaultMethodSecurityExpressionHandler@4b8d604b' of type [org.springframework.security.access.expression.method.DefaultMethodSecurityExpressionHandler] is not eligible for getting processed by all BeanPostProcessors (for example: not eligible for auto-proxying)

2020-02-25 16:25:13,092 INFO Bean 'org.springframework.security.config.annotation.method.configuration.GlobalMethodSecurityConfiguration' of type [org.springframework.security.config.annotation.method.configuration.GlobalMethodSecurityConfiguration$$EnhancerBySpringCGLIB$$ea96e722] is not eligible for getting processed by all BeanPostProcessors (for example: not eligible for auto-proxying)

2020-02-25 16:25:13,104 INFO Bean 'methodSecurityMetadataSource' of type [org.springframework.security.access.method.DelegatingMethodSecurityMetadataSource] is not eligible for getting processed by all BeanPostProcessors (for example: not eligible for auto-proxying)

2020-02-25 16:25:14,683 INFO Tomcat initialized with port(s): 8848 (http)

2020-02-25 16:25:14,788 INFO Starting service [Tomcat]

2020-02-25 16:25:14,789 INFO Starting Servlet Engine: Apache Tomcat/9.0.13

2020-02-25 16:25:14,817 INFO The APR based Apache Tomcat Native library which allows optimal performance in production environments was not found on the java.library.path: [E:\pro_tools\jdk1.8.0_111\bin;C:\Windows\Sun\Java\bin;C:\Windows\system32;C:\Windows;C:\Windows\system32;C:\Windows;C:\Windows\System32\Wbem;E:\pro_tools\Oracle10g\app\oracle\product\10.2.0\server\Bin;C:\Windows\System32\WindowsPowerShell\v1.0\;E:\pro_tools\IBM.Rational.Rose.Enterprise.v7.0\common;E:\job_nessTools\PLSQL\instantclient_11_2;E:\pro_tools\jdk1.8.0_111\bin;E:\pro_tools\jdk1.8.0_111\jre\bin;E:\job_nessTools\Yarn\bin;E:\pro_tools\MySQL\MySQL Server 5.1\bin;E:\job_nessTools\Gradle\gradle-4.5-all\bin;F:\sinosoft\Git\Git\cmd;E:\pro_tools\erl10.0.1\bin;E:\pro_tools\RabbitMQServer\rabbitmq_server-3.7.8\sbin;E:\JOB\OpenVPN\bin;E:\JOB\python2.7.5;E:\JOB\python2.7.5\Scripts;E:\JOB\go113\GO\bin;E:\job_nessTools\node-v9.3.0-x64\;E:\JOB\gcc\mingw64\bin;E:\pro_tools\apache-maven-3.5.4\bin;C:\Users\Administrator\AppData\Local\Microsoft\WindowsApps;C:\Users\Administrator\go\bin;;E:\JOB\Microsoft VS Code\bin;E:\JOB\Fiddler;C:\Users\Administrator\go\bin;C:\Users\Administrator\AppData\Roaming\npm;.]

2020-02-25 16:25:15,040 INFO Initializing Spring embedded WebApplicationContext

2020-02-25 16:25:15,040 INFO Root WebApplicationContext: initialization completed in 8904 ms

2020-02-25 16:25:19,142 INFO Reflections took 60 ms to scan 1 urls, producing 6 keys and 24 values 

2020-02-25 16:25:19,212 INFO Reflections took 6 ms to scan 1 urls, producing 2 keys and 12 values 

2020-02-25 16:25:19,236 INFO Reflections took 17 ms to scan 1 urls, producing 3 keys and 15 values 

2020-02-25 16:25:20,898 INFO Use Mysql as the driver

2020-02-25 16:25:21,999 INFO Initializing ExecutorService 'applicationTaskExecutor'

2020-02-25 16:25:22,466 INFO Adding welcome page: class path resource [static/index.html]

2020-02-25 16:25:23,526 INFO Creating filter chain: Ant [pattern='/**'], []

2020-02-25 16:25:23,601 INFO Creating filter chain: any request, [org.springframework.security.web.context.request.async.WebAsyncManagerIntegrationFilter@553f1d75, org.springframework.security.web.context.SecurityContextPersistenceFilter@3829ac1, org.springframework.security.web.header.HeaderWriterFilter@2783717b, org.springframework.security.web.csrf.CsrfFilter@5ad10c1a, org.springframework.security.web.authentication.logout.LogoutFilter@44828f6b, org.springframework.security.web.savedrequest.RequestCacheAwareFilter@1bb1fde8, org.springframework.security.web.servletapi.SecurityContextHolderAwareRequestFilter@30990c1b, org.springframework.security.web.authentication.AnonymousAuthenticationFilter@6e1d8f9e, org.springframework.security.web.session.SessionManagementFilter@4a335fa8, org.springframework.security.web.access.ExceptionTranslationFilter@c260bdc]

2020-02-25 16:25:23,780 INFO Exposing 2 endpoint(s) beneath base path '/actuator'

2020-02-25 16:25:23,851 INFO Initializing ExecutorService 'taskScheduler'

2020-02-25 16:25:24,113 INFO Tomcat started on port(s): 8848 (http) with context path '/nacos'

2020-02-25 16:25:24,126 INFO Started Nacos in 20.652 seconds (JVM running for 21.811)

2020-02-25 16:25:24,126 INFO Nacos logs files: C:\Users\Administrator\Desktop\test\需要下载的项目\nacos\nacos\logs\

2020-02-25 16:25:24,128 INFO Nacos conf files: C:\Users\Administrator\Desktop\test\需要下载的项目\nacos\nacos\conf\

2020-02-25 16:25:24,129 INFO Nacos data files: C:\Users\Administrator\Desktop\test\需要下载的项目\nacos\nacos\data\

2020-02-25 16:25:24,132 INFO Nacos started successfully in stand alone mode.

2020-02-25 16:25:25,820 INFO Initializing Spring DispatcherServlet 'dispatcherServlet'

2020-02-25 16:25:25,822 INFO Initializing Servlet 'dispatcherServlet'

2020-02-25 16:25:25,858 INFO Completed initialization in 22 ms

2020-02-25 16:35:20,529 INFO [capacityManagement] start correct usage

2020-02-25 16:35:20,553 INFO [capacityManagement] end correct usage, cost: 0s

2020-02-25 16:35:20,884 WARN clearConfigHistory start

2020-02-25 16:45:20,555 INFO [capacityManagement] start correct usage

2020-02-25 16:45:20,556 INFO [capacityManagement] end correct usage, cost: 0s

2020-02-25 16:45:20,904 WARN clearConfigHistory start

2020-02-25 16:55:20,556 INFO [capacityManagement] start correct usage

2020-02-25 16:55:20,556 INFO [capacityManagement] end correct usage, cost: 0s

2020-02-25 16:55:20,908 WARN clearConfigHistory start

2020-02-25 17:00:40,997 INFO listen config id:nacos-config-example.propertiesDEFAULT_GROUP224bc695df3f32d712ac7ee062a7db13

2020-02-25 17:00:40,998 INFO listen config id 2:nacos-config-example.propertiesDEFAULT_GROUP224bc695df3f32d712ac7ee062a7db13

2020-02-25 17:00:41,194 INFO listen config id:nacos-config-example.propertiesDEFAULT_GROUP224bc695df3f32d712ac7ee062a7db13

2020-02-25 17:00:41,194 INFO listen config id 2:nacos-config-example.propertiesDEFAULT_GROUP224bc695df3f32d712ac7ee062a7db13

2020-02-25 17:01:10,703 INFO listen config id:nacos-config-example.propertiesDEFAULT_GROUP224bc695df3f32d712ac7ee062a7db13

2020-02-25 17:01:10,704 INFO listen config id 2:nacos-config-example.propertiesDEFAULT_GROUP224bc695df3f32d712ac7ee062a7db13

2020-02-25 17:01:40,209 INFO listen config id:nacos-config-example.propertiesDEFAULT_GROUP224bc695df3f32d712ac7ee062a7db13

2020-02-25 17:01:40,209 INFO listen config id 2:nacos-config-example.propertiesDEFAULT_GROUP224bc695df3f32d712ac7ee062a7db13

2020-02-25 17:02:09,714 INFO listen config id:nacos-config-example.propertiesDEFAULT_GROUP224bc695df3f32d712ac7ee062a7db13

2020-02-25 17:02:09,714 INFO listen config id 2:nacos-config-example.propertiesDEFAULT_GROUP224bc695df3f32d712ac7ee062a7db13

2020-02-25 17:02:39,224 INFO listen config id:nacos-config-example.propertiesDEFAULT_GROUP224bc695df3f32d712ac7ee062a7db13

2020-02-25 17:02:39,225 INFO listen config id 2:nacos-config-example.propertiesDEFAULT_GROUP224bc695df3f32d712ac7ee062a7db13

2020-02-25 17:03:08,729 INFO listen config id:nacos-config-example.propertiesDEFAULT_GROUP224bc695df3f32d712ac7ee062a7db13

2020-02-25 17:03:08,730 INFO listen config id 2:nacos-config-example.propertiesDEFAULT_GROUP224bc695df3f32d712ac7ee062a7db13

2020-02-25 17:03:38,235 INFO listen config id:nacos-config-example.propertiesDEFAULT_GROUP224bc695df3f32d712ac7ee062a7db13

2020-02-25 17:03:38,235 INFO listen config id 2:nacos-config-example.propertiesDEFAULT_GROUP224bc695df3f32d712ac7ee062a7db13

2020-02-25 17:04:07,740 INFO listen config id:nacos-config-example.propertiesDEFAULT_GROUP224bc695df3f32d712ac7ee062a7db13

2020-02-25 17:04:07,740 INFO listen config id 2:nacos-config-example.propertiesDEFAULT_GROUP224bc695df3f32d712ac7ee062a7db13

2020-02-25 17:04:41,599 INFO Shutting down ExecutorService 'taskScheduler'

2020-02-25 17:04:41,603 INFO Shutting down ExecutorService 'applicationTaskExecutor'

